[
  {
    "uuid": "9c6f3236-d851-3827-8025-991988bbd6f4",
    "name": "elguardianx",
    "level": 4,
    "bypassesPlayerLimit": false
  },
  {
    "uuid": "e258e71b-4fbc-3a1d-8c02-5693a4893086",
    "name": "Faker",
    "level": 2,
    "bypassesPlayerLimit": false
  },
  {
    "uuid": "be2b609f-f2f9-353e-b190-542ab1e8bd24",
    "name": "Noaz",
    "level": 2,
    "bypassesPlayerLimit": false
  }
]